{
	"help": "http://ckan:5000/api/3/action/help_show?name=package_show",
	"success": true,
	"result": {
		"license_title": null,
		"maintainer": "Griesbach, Robert",
		"relationships_as_object": [],
		"private": false,
		"maintainer_email": "Robert.Griesbach@ARS.USDA.GOV",
		"num_tags": 10,
		"id": "665c4554-9458-4114-b5d2-6321ce6c7efa",
		"metadata_created": "2019-08-01T17:50:35.049401",
		"metadata_modified": "2019-08-01T17:50:35.049413",
		"author": null,
		"author_email": null,
		"state": "active",
		"version": null,
		"creator_user_id": "13373386-636f-420f-aff0-1982087bfa28",
		"type": "dataset",
		"resources": [{
			"mimetype": "application/vnd.openxmlformats-officedocument.presentationml.presentation",
			"cache_url": null,
			"hash": "",
			"description": "",
			"name": null,
			"format": "PPTX",
			"url": "https://data.nal.usda.gov/system/files/Animal%20Production%20and%20Protection.pptx",
			"datastore_active": false,
			"cache_last_updated": null,
			"package_id": "665c4554-9458-4114-b5d2-6321ce6c7efa",
			"created": "2019-08-01T17:50:35.057232",
			"state": "active",
			"mimetype_inner": null,
			"last_modified": null,
			"position": 0,
			"revision_id": "5f5fd7b6-b614-4818-ac49-64418d960ba7",
			"url_type": null,
			"id": "f3c91e88-b299-42b6-9c66-7df87a7da745",
			"resource_type": null,
			"size": null
		}, {
			"mimetype": "text/csv",
			"cache_url": null,
			"hash": "",
			"description": "",
			"name": null,
			"format": "CSV",
			"url": "https://data.nal.usda.gov/system/files/Animal_Production_and_Protection_2018-06_0.csv",
			"datastore_active": true,
			"cache_last_updated": null,
			"package_id": "665c4554-9458-4114-b5d2-6321ce6c7efa",
			"created": "2019-08-01T17:50:35.057245",
			"state": "active",
			"mimetype_inner": null,
			"last_modified": null,
			"position": 1,
			"revision_id": "5f5fd7b6-b614-4818-ac49-64418d960ba7",
			"url_type": null,
			"id": "4169bdd3-7bde-4fc5-ac8a-a9b441f28cb6",
			"resource_type": null,
			"size": null
		}, {
			"mimetype": "text/csv",
			"cache_url": null,
			"hash": "",
			"description": "",
			"name": null,
			"format": "CSV",
			"url": "https://data.nal.usda.gov/system/files/patented-technologies-data-dictionary.csv",
			"datastore_active": true,
			"cache_last_updated": null,
			"package_id": "665c4554-9458-4114-b5d2-6321ce6c7efa",
			"created": "2019-08-01T17:50:35.057250",
			"state": "active",
			"mimetype_inner": null,
			"last_modified": null,
			"position": 2,
			"revision_id": "5f5fd7b6-b614-4818-ac49-64418d960ba7",
			"url_type": null,
			"id": "02056f25-4d51-4bfe-aeb6-79988c8b19f7",
			"resource_type": null,
			"size": null
		}, {
			"mimetype": "text/html",
			"cache_url": null,
			"hash": "",
			"description": "",
			"name": null,
			"format": "HTML",
			"url": "https://www.ars.usda.gov/office-of-technology-transfer/",
			"datastore_active": false,
			"cache_last_updated": null,
			"package_id": "665c4554-9458-4114-b5d2-6321ce6c7efa",
			"created": "2019-08-01T17:50:35.057255",
			"state": "active",
			"mimetype_inner": null,
			"last_modified": null,
			"position": 3,
			"revision_id": "5f5fd7b6-b614-4818-ac49-64418d960ba7",
			"url_type": null,
			"id": "0c5f5f66-d56f-42f3-96cc-a6ed38ef664a",
			"resource_type": null,
			"size": null
		}, {
			"mimetype": "text/html",
			"cache_url": null,
			"hash": "",
			"description": "",
			"name": null,
			"format": "HTML",
			"url": "https://www.ars.usda.gov/office-of-technology-transfer/animal-health-archived/",
			"datastore_active": false,
			"cache_last_updated": null,
			"package_id": "665c4554-9458-4114-b5d2-6321ce6c7efa",
			"created": "2019-08-01T17:50:35.057261",
			"state": "active",
			"mimetype_inner": null,
			"last_modified": null,
			"position": 4,
			"revision_id": "5f5fd7b6-b614-4818-ac49-64418d960ba7",
			"url_type": null,
			"id": "34efa65c-48f1-406e-a465-6658369c4fc4",
			"resource_type": null,
			"size": null
		}],
		"num_resources": 5,
		"tags": [{
			"vocabulary_id": null,
			"state": "active",
			"display_name": "animals",
			"id": "8c8b65e8-a44c-4415-844e-80d5a9b090c0",
			"name": "animals"
		}, {
			"vocabulary_id": null,
			"state": "active",
			"display_name": "antibodies",
			"id": "cefced9c-e13d-4ff8-a797-fa9ac260f5c5",
			"name": "antibodies"
		}, {
			"vocabulary_id": null,
			"state": "active",
			"display_name": "avian",
			"id": "2dd726bb-d558-439b-8037-31a674500f17",
			"name": "avian"
		}, {
			"vocabulary_id": null,
			"state": "active",
			"display_name": "bovine",
			"id": "d31758eb-a7f3-4e0a-9d92-f8689a9b7909",
			"name": "bovine"
		}, {
			"vocabulary_id": null,
			"state": "active",
			"display_name": "disease",
			"id": "e2c7e161-c998-46a6-aed0-4594e11613b4",
			"name": "disease"
		}, {
			"vocabulary_id": null,
			"state": "active",
			"display_name": "infection",
			"id": "e1371d63-0254-45c8-87ca-5776700a2eed",
			"name": "infection"
		}, {
			"vocabulary_id": null,
			"state": "active",
			"display_name": "poultry",
			"id": "7fbbd340-6d33-459a-b5f8-453ddc20311b",
			"name": "poultry"
		}, {
			"vocabulary_id": null,
			"state": "active",
			"display_name": "toxins",
			"id": "01911a1e-7a67-4b56-a656-d505c0b24fdd",
			"name": "toxins"
		}, {
			"vocabulary_id": null,
			"state": "active",
			"display_name": "vaccine",
			"id": "e0115651-d590-4359-acac-21a58bf30ff0",
			"name": "vaccine"
		}, {
			"vocabulary_id": null,
			"state": "active",
			"display_name": "vitamin",
			"id": "6305cf02-1057-4533-b9d2-b0cb3c9776d8",
			"name": "vitamin"
		}],
		"groups": [],
		"license_id": null,
		"relationships_as_subject": [],
		"organization": {
			"description": "asd asd asd ",
			"created": "2019-07-02T15:04:10.303187",
			"title": "My local test organization v2",
			"name": "my-local-test-organization-v2",
			"is_organization": true,
			"state": "active",
			"image_url": "",
			"revision_id": "1c50e5b8-9e7e-4fdb-9b0d-ae1a96fa5542",
			"type": "organization",
			"id": "09fd6a04-84ce-43cd-9952-196d5e8c94f0",
			"approval_status": "approved"
		},
		"name": "usda-agricultural-research-service-patented-animal-production-and-protection-technologies",
		"isopen": false,
		"url": null,
		"notes": "<p>Recent USDA/ARS patented technologies on animal production and protection that are available for licensing are described, including summary, contact, benefits, and applications. Updated June 2018.</p>\n",
		"owner_org": "09fd6a04-84ce-43cd-9952-196d5e8c94f0",
		"extras": [{
			"key": "accessLevel",
			"value": "public"
		}, {
			"key": "bureauCode",
			"value": "{005:18}"
		}, {
			"key": "identifier",
			"value": "372bcb63-d926-4d0c-acc2-857246e36d34"
		}, {
			"key": "license",
			"value": "https://creativecommons.org/publicdomain/zero/1.0/"
		}, {
			"key": "modified",
			"value": "2018-10-30"
		}, {
			"key": "programCode",
			"value": "{005:040}"
		}, {
			"key": "publisher",
			"value": "USDA NAL"
		}, {
			"key": "resource-type",
			"value": "Dataset"
		}, {
			"key": "source_datajson_identifier",
			"value": "true"
		}, {
			"key": "source_hash",
			"value": "27023ec938083feb9df6907d02ba53b3d2816683"
		}, {
			"key": "source_schema_version",
			"value": "1.1"
		}],
		"title": "USDA Agricultural Research Service- Patented Animal Production and Protection Technologies",
		"revision_id": "5f5fd7b6-b614-4818-ac49-64418d960ba7"
	}
}